<define-tag pagetitle>DLA-3129-1 gdal</define-tag>
<define-tag report_date>2022-10-01</define-tag>
<define-tag secrefs>CVE-2019-17545 CVE-2021-45943</define-tag>
<define-tag packages>gdal</define-tag>
<define-tag isvulnerable>yes</define-tag>
<define-tag fixed>yes</define-tag>
<define-tag fixed-section>no</define-tag>

#use wml::debian::security

