<define-tag pagetitle>DLA-3087-1 webkit2gtk</define-tag>
<define-tag report_date>2022-09-05</define-tag>
<define-tag secrefs>CVE-2022-32893</define-tag>
<define-tag packages>webkit2gtk</define-tag>
<define-tag isvulnerable>yes</define-tag>
<define-tag fixed>yes</define-tag>
<define-tag fixed-section>no</define-tag>

#use wml::debian::security

