<define-tag pagetitle>DLA-2928-1 htmldoc</define-tag>
<define-tag report_date>2022-2-26</define-tag>
<define-tag secrefs>CVE-2021-40985 CVE-2021-43579 CVE-2022-0534</define-tag>
<define-tag packages>htmldoc</define-tag>
<define-tag isvulnerable>yes</define-tag>
<define-tag fixed>yes</define-tag>
<define-tag fixed-section>no</define-tag>

#use wml::debian::security

