<define-tag pagetitle>DLA-3157-1 bluez</define-tag>
<define-tag report_date>2022-10-24</define-tag>
<define-tag secrefs>CVE-2019-8921 CVE-2019-8922 CVE-2021-41229 CVE-2021-43400 CVE-2022-0204 CVE-2022-39176 CVE-2022-39177 Bug#998626 Bug#1000262 Bug#1003712</define-tag>
<define-tag packages>bluez</define-tag>
<define-tag isvulnerable>yes</define-tag>
<define-tag fixed>yes</define-tag>
<define-tag fixed-section>no</define-tag>

#use wml::debian::security

