<define-tag pagetitle>DLA-3174-1 pysha3</define-tag>
<define-tag report_date>2022-10-31</define-tag>
<define-tag secrefs>CVE-2022-37454 Bug#1023030</define-tag>
<define-tag packages>pysha3</define-tag>
<define-tag isvulnerable>yes</define-tag>
<define-tag fixed>yes</define-tag>
<define-tag fixed-section>no</define-tag>

#use wml::debian::security

