<define-tag pagetitle>DLA-3106-1 python-oslo.utils</define-tag>
<define-tag report_date>2022-09-13</define-tag>
<define-tag secrefs>CVE-2022-0718</define-tag>
<define-tag packages>python-oslo.utils</define-tag>
<define-tag isvulnerable>yes</define-tag>
<define-tag fixed>yes</define-tag>
<define-tag fixed-section>no</define-tag>

#use wml::debian::security
