<define-tag pagetitle>DLA-3143-1 strongswan</define-tag>
<define-tag report_date>2022-10-10</define-tag>
<define-tag secrefs>CVE-2022-40617</define-tag>
<define-tag packages>strongswan</define-tag>
<define-tag isvulnerable>yes</define-tag>
<define-tag fixed>yes</define-tag>
<define-tag fixed-section>no</define-tag>

#use wml::debian::security
