<define-tag pagetitle>DLA-3063-1 systemd</define-tag>
<define-tag report_date>2022-06-30</define-tag>
<define-tag secrefs>CVE-2020-1712 Bug#950732</define-tag>
<define-tag packages>systemd</define-tag>
<define-tag isvulnerable>yes</define-tag>
<define-tag fixed>yes</define-tag>
<define-tag fixed-section>no</define-tag>

#use wml::debian::security

