<define-tag pagetitle>DLA-3171-1 distro-info-data</define-tag>
<define-tag report_date>2022-10-30</define-tag>
<define-tag packages>distro-info-data</define-tag>
<define-tag isvulnerable>no</define-tag>
<define-tag fixed>yes</define-tag>
<define-tag fixed-section>no</define-tag>

#use wml::debian::security

