<define-tag pagetitle>DLA-3101-1 libxslt</define-tag>
<define-tag report_date>2022-09-09</define-tag>
<define-tag secrefs>CVE-2019-5815 CVE-2021-30560</define-tag>
<define-tag packages>libxslt</define-tag>
<define-tag isvulnerable>yes</define-tag>
<define-tag fixed>yes</define-tag>
<define-tag fixed-section>no</define-tag>

#use wml::debian::security

