<define-tag pagetitle>DLA-2895-1 qt4-x11</define-tag>
<define-tag report_date>2022-01-24</define-tag>
<define-tag secrefs>CVE-2021-3481 CVE-2021-45930 Bug#986798 Bug#1002991</define-tag>
<define-tag packages>qt4-x11</define-tag>
<define-tag isvulnerable>yes</define-tag>
<define-tag fixed>yes</define-tag>
<define-tag fixed-section>no</define-tag>

#use wml::debian::security

