<define-tag pagetitle>DLA-3083-1 puma</define-tag>
<define-tag report_date>2022-09-02</define-tag>
<define-tag secrefs>CVE-2021-29509 CVE-2021-41136 CVE-2022-23634 CVE-2022-24790</define-tag>
<define-tag packages>puma</define-tag>
<define-tag isvulnerable>yes</define-tag>
<define-tag fixed>yes</define-tag>
<define-tag fixed-section>no</define-tag>

#use wml::debian::security

