<define-tag pagetitle>DSA-4838-1 mutt</define-tag>
<define-tag report_date>2021-1-25</define-tag>
<define-tag secrefs>CVE-2021-3181 Bug#980326</define-tag>
<define-tag packages>mutt</define-tag>
<define-tag isvulnerable>yes</define-tag>
<define-tag fixed>yes</define-tag>
<define-tag fixed-section>no</define-tag>

#use wml::debian::security



</dl>
