<define-tag pagetitle>DSA-4984-1 flatpak</define-tag>
<define-tag report_date>2021-10-12</define-tag>
<define-tag secrefs>CVE-2021-41133 Bug#995935</define-tag>
<define-tag packages>flatpak</define-tag>
<define-tag isvulnerable>yes</define-tag>
<define-tag fixed>yes</define-tag>
<define-tag fixed-section>no</define-tag>

#use wml::debian::security



</dl>
