<define-tag pagetitle>DSA-4975-1 webkit2gtk</define-tag>
<define-tag report_date>2021-9-20</define-tag>
<define-tag secrefs>CVE-2021-30858</define-tag>
<define-tag packages>webkit2gtk</define-tag>
<define-tag isvulnerable>yes</define-tag>
<define-tag fixed>yes</define-tag>
<define-tag fixed-section>no</define-tag>

#use wml::debian::security



</dl>
