<define-tag pagetitle>DSA-4756-1 lilypond</define-tag>
<define-tag report_date>2020-8-29</define-tag>
<define-tag secrefs>CVE-2020-17353</define-tag>
<define-tag packages>lilypond</define-tag>
<define-tag isvulnerable>yes</define-tag>
<define-tag fixed>yes</define-tag>
<define-tag fixed-section>no</define-tag>

#use wml::debian::security



</dl>
