<define-tag pagetitle>DSA-4678-1 firefox-esr</define-tag>
<define-tag report_date>2020-5-06</define-tag>
<define-tag secrefs>CVE-2020-6831 CVE-2020-12387 CVE-2020-12392 CVE-2020-12395</define-tag>
<define-tag packages>firefox-esr</define-tag>
<define-tag isvulnerable>yes</define-tag>
<define-tag fixed>yes</define-tag>
<define-tag fixed-section>no</define-tag>

#use wml::debian::security



</dl>
