<define-tag pagetitle>DSA-4743-1 ruby-kramdown</define-tag>
<define-tag report_date>2020-8-10</define-tag>
<define-tag secrefs>CVE-2020-14001 Bug#965305</define-tag>
<define-tag packages>ruby-kramdown</define-tag>
<define-tag isvulnerable>yes</define-tag>
<define-tag fixed>yes</define-tag>
<define-tag fixed-section>no</define-tag>

#use wml::debian::security



</dl>
