<define-tag pagetitle>DLA-2652-1 unbound1.9</define-tag>
<define-tag report_date>2021-5-06</define-tag>
<define-tag secrefs>CVE-2019-25031 CVE-2019-25032 CVE-2019-25033 CVE-2019-25034 CVE-2019-25035 CVE-2019-25036 CVE-2019-25037 CVE-2019-25038 CVE-2019-25039 CVE-2019-25040 CVE-2019-25041 CVE-2019-25042</define-tag>
<define-tag packages>unbound1.9</define-tag>
<define-tag isvulnerable>yes</define-tag>
<define-tag fixed>yes</define-tag>
<define-tag fixed-section>no</define-tag>

#use wml::debian::security

