<define-tag pagetitle>DLA-2703-1 ieee-data</define-tag>
<define-tag report_date>2021-07-04</define-tag>
<define-tag secrefs>Bug#908623 Bug#932711</define-tag>
<define-tag packages>ieee-data</define-tag>
<define-tag isvulnerable>yes</define-tag>
<define-tag fixed>yes</define-tag>
<define-tag fixed-section>no</define-tag>

#use wml::debian::security

