<define-tag pagetitle>DLA-2550-1 openjpeg2</define-tag>
<define-tag report_date>2021-02-09</define-tag>
<define-tag secrefs>CVE-2020-27814 CVE-2020-27823 CVE-2020-27824 CVE-2020-27841 CVE-2020-27844 CVE-2020-27845</define-tag>
<define-tag packages>openjpeg2</define-tag>
<define-tag isvulnerable>yes</define-tag>
<define-tag fixed>yes</define-tag>
<define-tag fixed-section>no</define-tag>

#use wml::debian::security

