<define-tag pagetitle>DLA-2571-1 openvswitch</define-tag>
<define-tag report_date>2021-2-19</define-tag>
<define-tag secrefs>CVE-2015-8011 CVE-2017-9214 CVE-2018-17204 CVE-2018-17206 CVE-2020-27827 CVE-2020-35498</define-tag>
<define-tag packages>openvswitch</define-tag>
<define-tag isvulnerable>yes</define-tag>
<define-tag fixed>yes</define-tag>
<define-tag fixed-section>no</define-tag>

#use wml::debian::security

