<define-tag pagetitle>DLA-2761-1 openssl1.0</define-tag>
<define-tag report_date>2021-09-18</define-tag>
<define-tag packages>openssl1.0</define-tag>
<define-tag isvulnerable>yes</define-tag>
<define-tag fixed>yes</define-tag>
<define-tag fixed-section>no</define-tag>

#use wml::debian::security

