<define-tag pagetitle>DLA-2834-1 uriparser</define-tag>
<define-tag report_date>2021-11-30</define-tag>
<define-tag secrefs>CVE-2018-20721</define-tag>
<define-tag packages>uriparser</define-tag>
<define-tag isvulnerable>yes</define-tag>
<define-tag fixed>yes</define-tag>
<define-tag fixed-section>no</define-tag>

#use wml::debian::security

