<define-tag pagetitle>DSA-5353-1 nss</define-tag>
<define-tag report_date>2023-2-17</define-tag>
<define-tag secrefs>CVE-2023-0767</define-tag>
<define-tag packages>nss</define-tag>
<define-tag isvulnerable>yes</define-tag>
<define-tag fixed>yes</define-tag>
<define-tag fixed-section>no</define-tag>

#use wml::debian::security



</dl>
