<define-tag pagetitle>DSA-5324-1 linux</define-tag>
<define-tag report_date>2023-1-23</define-tag>
<define-tag secrefs>CVE-2022-2873 CVE-2022-3545 CVE-2022-3623 CVE-2022-4696 CVE-2022-36280 CVE-2022-41218 CVE-2022-45934 CVE-2022-47929 CVE-2023-0179 CVE-2023-0266 CVE-2023-0394 CVE-2023-23454 CVE-2023-23455</define-tag>
<define-tag packages>linux</define-tag>
<define-tag isvulnerable>yes</define-tag>
<define-tag fixed>yes</define-tag>
<define-tag fixed-section>no</define-tag>

#use wml::debian::security



</dl>
