<define-tag pagetitle>DLA-1107-1 bzr</define-tag>
<define-tag report_date>2017-9-23</define-tag>
<define-tag secrefs>CVE-2013-2099 CVE-2017-14176 Bug#709068 Bug#874429</define-tag>
<define-tag packages>bzr</define-tag>
<define-tag isvulnerable>yes</define-tag>
<define-tag fixed>yes</define-tag>
<define-tag fixed-section>no</define-tag>

#use wml::debian::security

