<define-tag pagetitle>DLA-3322-1 golang-github-opencontainers-selinux</define-tag>
<define-tag report_date>2023-02-18</define-tag>
<define-tag secrefs>CVE-2019-16884 Bug#942027</define-tag>
<define-tag packages>golang-github-opencontainers-selinux</define-tag>
<define-tag isvulnerable>yes</define-tag>
<define-tag fixed>yes</define-tag>
<define-tag fixed-section>no</define-tag>

#use wml::debian::security

