<define-tag pagetitle>DLA-3332-1 apr-util</define-tag>
<define-tag report_date>2023-02-21</define-tag>
<define-tag secrefs>CVE-2022-25147</define-tag>
<define-tag packages>apr-util</define-tag>
<define-tag isvulnerable>yes</define-tag>
<define-tag fixed>yes</define-tag>
<define-tag fixed-section>no</define-tag>

#use wml::debian::security

