<define-tag pagetitle>DLA-3347-1 spip</define-tag>
<define-tag report_date>2023-02-27</define-tag>
<define-tag secrefs>CVE-2023-24258 CVE-2023-27372</define-tag>
<define-tag packages>spip</define-tag>
<define-tag isvulnerable>yes</define-tag>
<define-tag fixed>yes</define-tag>
<define-tag fixed-section>no</define-tag>

#use wml::debian::security

