<define-tag pagetitle>DLA-1476-1 dropbear</define-tag>
<define-tag report_date>2018-8-27</define-tag>
<define-tag secrefs>CVE-2018-15599 Bug#906890</define-tag>
<define-tag packages>dropbear</define-tag>
<define-tag isvulnerable>yes</define-tag>
<define-tag fixed>yes</define-tag>
<define-tag fixed-section>no</define-tag>

#use wml::debian::security

