<define-tag pagetitle>DLA-1443-1 evolution-data-server</define-tag>
<define-tag report_date>2018-7-25</define-tag>
<define-tag secrefs>CVE-2016-10727</define-tag>
<define-tag packages>evolution-data-server</define-tag>
<define-tag isvulnerable>yes</define-tag>
<define-tag fixed>yes</define-tag>
<define-tag fixed-section>no</define-tag>

#use wml::debian::security

