<define-tag pagetitle>DLA-1546-1 moin</define-tag>
<define-tag report_date>2018-10-15</define-tag>
<define-tag secrefs>CVE-2017-5934 Bug#910776</define-tag>
<define-tag packages>moin</define-tag>
<define-tag isvulnerable>yes</define-tag>
<define-tag fixed>yes</define-tag>
<define-tag fixed-section>no</define-tag>

#use wml::debian::security

