<define-tag pagetitle>DLA-1299-1 libjgraphx-java</define-tag>
<define-tag report_date>2018-3-4</define-tag>
<define-tag secrefs>CVE-2017-18197 Bug##891796</define-tag>
<define-tag packages>libjgraphx-java</define-tag>
<define-tag isvulnerable>yes</define-tag>
<define-tag fixed>yes</define-tag>
<define-tag fixed-section>no</define-tag>

#use wml::debian::security

