<define-tag pagetitle>DSA-4388-1 mosquitto</define-tag>
<define-tag report_date>2019-2-10</define-tag>
<define-tag secrefs>CVE-2018-12546 CVE-2018-12550 CVE-2018-12551</define-tag>
<define-tag packages>mosquitto</define-tag>
<define-tag isvulnerable>yes</define-tag>
<define-tag fixed>yes</define-tag>
<define-tag fixed-section>no</define-tag>

#use wml::debian::security



</dl>
