<define-tag pagetitle>DSA-4440-1 bind9</define-tag>
<define-tag report_date>2019-5-09</define-tag>
<define-tag secrefs>CVE-2018-5743 CVE-2018-5745 CVE-2019-6465</define-tag>
<define-tag packages>bind9</define-tag>
<define-tag isvulnerable>yes</define-tag>
<define-tag fixed>yes</define-tag>
<define-tag fixed-section>no</define-tag>

#use wml::debian::security



</dl>
