<define-tag pagetitle>DSA-5180-1 chromium</define-tag>
<define-tag report_date>2022-7-11</define-tag>
<define-tag secrefs>CVE-2022-2294 CVE-2022-2295 CVE-2022-2296</define-tag>
<define-tag packages>chromium</define-tag>
<define-tag isvulnerable>yes</define-tag>
<define-tag fixed>yes</define-tag>
<define-tag fixed-section>no</define-tag>

#use wml::debian::security



</dl>
