<define-tag pagetitle>DSA-5042-1 epiphany-browser</define-tag>
<define-tag report_date>2022-1-12</define-tag>
<define-tag secrefs>CVE-2021-45085 CVE-2021-45086 CVE-2021-45087 CVE-2021-45088</define-tag>
<define-tag packages>epiphany-browser</define-tag>
<define-tag isvulnerable>yes</define-tag>
<define-tag fixed>yes</define-tag>
<define-tag fixed-section>no</define-tag>

#use wml::debian::security



</dl>
