<define-tag pagetitle>DSA-5190-1 spip</define-tag>
<define-tag report_date>2022-7-26</define-tag>
<define-tag secrefs>not yet available</define-tag>
<define-tag packages>spip</define-tag>
<define-tag isvulnerable>yes</define-tag>
<define-tag fixed>yes</define-tag>
<define-tag fixed-section>no</define-tag>

#use wml::debian::security



</dl>
