<define-tag pagetitle>DSA-5256-1 bcel</define-tag>
<define-tag report_date>2022-10-18</define-tag>
<define-tag secrefs>CVE-2022-34169 Bug#1015860</define-tag>
<define-tag packages>bcel</define-tag>
<define-tag isvulnerable>yes</define-tag>
<define-tag fixed>yes</define-tag>
<define-tag fixed-section>no</define-tag>

#use wml::debian::security



</dl>
