<define-tag pagetitle>DSA-5303-1 thunderbird</define-tag>
<define-tag report_date>2022-12-16</define-tag>
<define-tag secrefs>CVE-2022-46882 CVE-2022-46881 CVE-2022-46880 CVE-2022-46878 CVE-2022-46874 CVE-2022-46872 CVE-2022-45414</define-tag>
<define-tag packages>thunderbird</define-tag>
<define-tag isvulnerable>yes</define-tag>
<define-tag fixed>yes</define-tag>
<define-tag fixed-section>no</define-tag>

#use wml::debian::security



</dl>
