<define-tag pagetitle>DSA-5160-1 ntfs-3g</define-tag>
<define-tag report_date>2022-6-10</define-tag>
<define-tag secrefs>CVE-2021-46790 CVE-2022-30783 CVE-2022-30784 CVE-2022-30785 CVE-2022-30786 CVE-2022-30787 CVE-2022-30788 CVE-2022-30789 Bug#1011770</define-tag>
<define-tag packages>ntfs-3g</define-tag>
<define-tag isvulnerable>yes</define-tag>
<define-tag fixed>yes</define-tag>
<define-tag fixed-section>no</define-tag>

#use wml::debian::security



</dl>
