<define-tag pagetitle>DSA-5199-1 xorg-server</define-tag>
<define-tag report_date>2022-8-06</define-tag>
<define-tag secrefs>CVE-2022-2319 CVE-2022-2320 Bug#1014903</define-tag>
<define-tag packages>xorg-server</define-tag>
<define-tag isvulnerable>yes</define-tag>
<define-tag fixed>yes</define-tag>
<define-tag fixed-section>no</define-tag>

#use wml::debian::security



</dl>
