<define-tag pagetitle>DLA-1846-2 unzip</define-tag>
<define-tag report_date>2019-7-28</define-tag>
<define-tag secrefs>CVE-2019-13232 Bug#932404</define-tag>
<define-tag packages>unzip</define-tag>
<define-tag isvulnerable>yes</define-tag>
<define-tag fixed>yes</define-tag>
<define-tag fixed-section>no</define-tag>

#use wml::debian::security

