<define-tag pagetitle>DLA-1851-1 openjpeg2</define-tag>
<define-tag report_date>2019-7-10</define-tag>
<define-tag secrefs>CVE-2016-9112 CVE-2018-20847 Bug#931294 Bug#844551</define-tag>
<define-tag packages>openjpeg2</define-tag>
<define-tag isvulnerable>yes</define-tag>
<define-tag fixed>yes</define-tag>
<define-tag fixed-section>no</define-tag>

#use wml::debian::security

