<define-tag pagetitle>DLA-1735-1 ruby2.1</define-tag>
<define-tag report_date>2019-3-29</define-tag>
<define-tag secrefs>CVE-2019-8320 CVE-2019-8322 CVE-2019-8323 CVE-2019-8324 CVE-2019-8325</define-tag>
<define-tag packages>ruby2.1</define-tag>
<define-tag isvulnerable>yes</define-tag>
<define-tag fixed>yes</define-tag>
<define-tag fixed-section>no</define-tag>

#use wml::debian::security

