<define-tag pagetitle>DLA-1882-1 atril</define-tag>
<define-tag report_date>2019-08-13</define-tag>
<define-tag secrefs>CVE-2017-1000159 CVE-2019-11459 CVE-2019-1010006</define-tag>
<define-tag packages>atril</define-tag>
<define-tag isvulnerable>yes</define-tag>
<define-tag fixed>yes</define-tag>
<define-tag fixed-section>no</define-tag>

#use wml::debian::security

