<define-tag pagetitle>DLA-1799-2 linux</define-tag>
<define-tag report_date>2019-05-28</define-tag>
<define-tag secrefs>CVE-2018-5995 CVE-2018-12126 CVE-2018-12127 CVE-2018-12130 CVE-2019-2024 CVE-2019-3459 CVE-2019-3460 CVE-2019-3882 CVE-2019-3901 CVE-2019-6133 CVE-2019-9503 CVE-2019-11091 CVE-2019-11190 CVE-2019-11486 CVE-2019-11599 Bug#927781</define-tag>
<define-tag packages>linux</define-tag>
<define-tag isvulnerable>yes</define-tag>
<define-tag fixed>yes</define-tag>
<define-tag fixed-section>no</define-tag>

#use wml::debian::security

