<define-tag pagetitle>DLA-2025-1 openslp-dfsg</define-tag>
<define-tag report_date>2019-12-08</define-tag>
<define-tag secrefs>CVE-2017-17833 CVE-2019-5544</define-tag>
<define-tag packages>openslp-dfsg</define-tag>
<define-tag isvulnerable>yes</define-tag>
<define-tag fixed>yes</define-tag>
<define-tag fixed-section>no</define-tag>

#use wml::debian::security

