<define-tag pagetitle>DLA-1721-1 otrs2</define-tag>
<define-tag report_date>2019-03-19</define-tag>
<define-tag secrefs>CVE-2019-9752</define-tag>
<define-tag packages>otrs2</define-tag>
<define-tag isvulnerable>yes</define-tag>
<define-tag fixed>yes</define-tag>
<define-tag fixed-section>no</define-tag>

#use wml::debian::security

