<define-tag pagetitle>DLA-533-1 php5</define-tag>
<define-tag report_date>2016-6-29</define-tag>
<define-tag secrefs>CVE-2016-5093 CVE-2016-5094 CVE-2016-5095 CVE-2016-5096</define-tag>
<define-tag packages>php5</define-tag>
<define-tag isvulnerable>yes</define-tag>
<define-tag fixed>yes</define-tag>
<define-tag fixed-section>no</define-tag>

#use wml::debian::security

